STAT 454 Project Progress Report
…
tidy(model_STS, conf.int = TRUE, conf.level = 0.8)
## # A tibble: 35 × 5
##    term                      estimate std.error conf.low conf.high
##    <chr>                        <dbl>     <dbl>    <dbl>     <dbl>
##  1 (Intercept)                 5.40      0.340   4.97      5.84   
##  2 field21                     0.0337    0.0158  0.0133    0.0540 
##  3 occupationflight engineer  -0.0678    0.171  -0.285     0.145  
##  4 occupationmsp              -0.0944    0.0377 -0.143    -0.0452 
##  5 occupationpilot            -0.150     0.0440 -0.207    -0.0939 
##  6 occupationpsp              -0.0873    0.0675 -0.174     0.00121
##  7 total_number_of_missions    0.0226    0.0113  0.00800   0.0368 
##  8 year_of_selection1962      -0.798     0.418  -1.34     -0.262  
##  9 year_of_selection1965       0.158     0.477  -0.460     0.773  
## 10 year_of_selection1966      -0.538     0.349  -0.981    -0.0901 
## # ℹ 25 more rows
…
