STAT 454 Final Project Report Part 2
…
#astronauts <- readr::read_csv('https://raw.githubusercontent.com/rfordatascience/tidytuesday/master/data/2020/2020-07-14/astronauts.csv')
astronauts <- read_csv("astronauts.csv")

log_transformed_astronauts <- read_csv("cleaned_data.csv")

Addition model of each in_orbit groups

astronauts %>%
  count(in_orbit, sort = TRUE)
## # A tibble: 289 × 2
##    in_orbit     n
##    <chr>    <int>
##  1 ISS        174
##  2 Mir         71
##  3 Salyut 6    24
##  4 Salyut 7    24
##  5 STS-42       8
##  6 STS-103      7
##  7 STS-107      7
##  8 STS-109      7
##  9 STS-110      7
## 10 STS-114      7
## # ℹ 279 more rows
…
